%YAML 1.1
%TAG !u! tag:unity3d.com,2011:
--- !u!221 &22100000
AnimatorOverrideController:
  m_ObjectHideFlags: 0
  m_CorrespondingSourceObject: {fileID: 0}
  m_PrefabInstance: {fileID: 0}
  m_PrefabAsset: {fileID: 0}
  m_Name: KirbyAnimatorController
  m_Controller: {fileID: 9100000, guid: 6fae330841ad989488f45f9669da2d6b, type: 2}
  m_Clips:
  - m_OriginalClip: {fileID: 7400000, guid: a964bdb68ade49b45bde4bc49d1b66b0, type: 2}
    m_OverrideClip: {fileID: 7400000, guid: a964bdb68ade49b45bde4bc49d1b66b0, type: 2}
  - m_OriginalClip: {fileID: 7400000, guid: 9091d00be02abc1428518a75463fc604, type: 2}
    m_OverrideClip: {fileID: 7400000, guid: a964bdb68ade49b45bde4bc49d1b66b0, type: 2}
